ODD Analysis
…
Delete the rows brand_name = TOPLAM

Change of ASTON MARTN to ASTON MARTIN in order to merge the two different brand names for the same brand.

setwd('/Users/serhansuer/Desktop/MEF/Data_Analytics_Essentials/ODD')
raw_data = read_rds('car_data_aggregate.rds')
raw_data = subset(raw_data,subset=brand_name != 'TOPLAM:')
raw_data$brand_name = str_replace(raw_data$brand_name,'ASTON MARTN','ASTON MARTIN')
raw_data = subset(raw_data, subset=(!startsWith(brand_name, 'ODD')))
asd = select(raw_data, contains('name')) %>%
    arrange(brand_name)
distinct(asd)

## # A tibble: 49 x 1
##    brand_name         
##    <chr>              
##  1 ALFA ROMEO         
##  2 "ASTON MART\u0130N"
##  3 ASTON MARTIN       
##  4 AUDI               
##  5 BENTLEY            
##  6 BMW                
##  7 CHERY              
##  8 CITROEN            
##  9 DACIA              
## 10 DS                 
## # ... with 39 more rows
…
